<?xml version="1.0" encoding="UTF-8"?>
<svg width="21px" height="17px" viewBox="0 0 21 17" version="1.1" xmlns="http://www.w3.org/2000/svg" xmlns:xlink="http://www.w3.org/1999/xlink">
    <!-- Generator: sketchtool 57 (101010) - https://sketch.com -->
    <title>2C556AD9-A615-4288-A385-60A5371AD98C</title>
    <desc>Created with sketchtool.</desc>
    <g id="Customer" stroke="none" stroke-width="1" fill="none" fill-rule="evenodd">
        <g id="Login" transform="translate(-53.000000, -675.000000)" fill="#FFFFFF" fill-rule="nonzero">
            <g id="nigeria-naira-currency-symbol" transform="translate(53.000000, 675.000000)">
                <path d="M20.2201095,9.59420814 L17.3534726,9.59420814 L17.3534726,6.86983951 L20.2201095,6.86983951 C20.6508477,6.86983951 21,6.52491016 21,6.09888495 C21,5.6728179 20.6508477,5.32767932 20.2201095,5.32767932 L17.3534726,5.32767932 L17.3534726,1.54747452 C17.3534726,0.995662876 17.2431961,0.590643923 17.025817,0.343925073 C16.8192286,0.109215773 16.5475999,0 16.1714498,0 C15.8125224,0 15.5511343,0.108462561 15.3485236,0.341707281 C15.1336834,0.588677202 15.0246342,0.994449367 15.0246342,1.54772559 L15.0246342,5.32813962 L9.63234541,5.32813962 L7.33960287,1.8973416 C7.14338192,1.59116083 6.95888261,1.30435435 6.77971515,1.02905528 C6.6184052,0.781122926 6.46107298,0.579262049 6.31245794,0.428535913 C6.18089638,0.295091813 6.03096953,0.191818048 5.85561054,0.112437848 C5.69015359,0.0377443017 5.47979898,0.000251070743 5.23093648,0.000251070743 C4.91352149,0.000251070743 4.62538941,0.0862428002 4.34948676,0.262912913 C4.07646163,0.43765815 3.88773067,0.653704524 3.77246092,0.923438192 C3.67128251,1.17978142 3.61775232,1.5725816 3.61775232,2.07961896 L3.61775232,5.32788854 L0.779594247,5.32788854 C0.348940681,5.32793039 0,5.67306897 0,6.09909418 C0,6.52511938 0.348940681,6.87004874 0.779636563,6.87004874 L3.61779463,6.87004874 L3.61779463,9.59471028 L0.779636563,9.59471028 C0.348940681,9.59471028 0,9.93976518 0,10.3659159 C0,10.7918156 0.348940681,11.1366194 0.779636563,11.1366194 L3.61779463,11.1366194 L3.61779463,15.452651 C3.61779463,15.9881431 3.73158332,16.3890612 3.95696023,16.6438143 C4.17129258,16.8867252 4.44304823,16.9994979 4.81208918,16.9994979 C5.16813901,16.9994979 5.43777883,16.8862231 5.66137847,16.6428519 C5.89035227,16.3935386 6.00617214,15.9928716 6.00617214,15.4526929 L6.00617214,11.1366194 L10.8855866,11.1366194 L13.526085,15.1404864 C13.7096957,15.4051568 13.899273,15.6722961 14.0883424,15.9342465 C14.2589197,16.169458 14.445027,16.3767169 14.6413749,16.5498302 C14.818215,16.7064146 15.0077923,16.8211539 15.2048595,16.8911608 C15.4077241,16.9633855 15.6448227,17 15.9079458,17 C16.6220343,17 17.3533879,16.7838281 17.3533879,15.1806159 L17.3533879,11.1366194 L20.2200249,11.1366194 C20.6507631,11.1366194 21,10.7913134 21,10.3654138 C21,9.9395141 20.6508477,9.59420814 20.2201095,9.59420814 Z M15.0245918,6.86979767 L15.0245918,9.5941663 L12.4838755,9.5941663 L10.6633835,6.86979767 L15.0245918,6.86979767 Z M6.00621446,3.7394058 L7.05396746,5.32767932 L6.00621446,5.32767932 L6.00621446,3.7394058 Z M6.00621446,9.59420814 L6.00621446,6.86983951 L8.07133732,6.86983951 L9.86834374,9.59420814 L6.00621446,9.59420814 Z M15.0245918,13.3968001 L13.5146173,11.1366194 L15.0245918,11.1366194 L15.0245918,13.3968001 Z" id="Shape"></path>
            </g>
        </g>
    </g>
</svg>