<?xml version="1.0" encoding="UTF-8"?>
<svg width="201px" height="169px" viewBox="0 0 201 169" version="1.1" xmlns="http://www.w3.org/2000/svg" xmlns:xlink="http://www.w3.org/1999/xlink">
    <!-- Generator: sketchtool 57 (101010) - https://sketch.com -->
    <title>10FDBE1B-E843-4751-9E9C-CECB5E449AA9</title>
    <desc>Created with sketchtool.</desc>
    <defs>
        <polygon id="path-1" points="0 0.186630648 200.90476 0.186630648 200.90476 150 0 150"></polygon>
    </defs>
    <g id="Customer" stroke="none" stroke-width="1" fill="none" fill-rule="evenodd">
        <g id="Success" transform="translate(-87.000000, -190.000000)">
            <g id="Group-2" transform="translate(23.000000, 190.000000)">
                <g id="success" transform="translate(64.000000, 0.000000)">
                    <g id="Group-3" transform="translate(0.000000, 19.000000)">
                        <mask id="mask-2" fill="white">
                            <use xlink:href="#path-1"></use>
                        </mask>
                        <g id="Clip-2"></g>
                        <path d="M192.605576,66.7701277 L174.328681,66.7701277 C172.996028,66.7701277 171.73008,66.1857466 170.864076,65.1702259 C169.451786,63.5099116 168.577554,61.2142338 168.577554,58.6822102 C168.577554,58.6539194 168.577554,58.6256287 168.577848,58.5973379 C168.611054,54.3501866 172.092409,50.9411493 176.327221,50.9411493 L184.554997,50.9411493 C189.13862,50.9411493 192.854475,46.980442 192.854475,42.094391 C192.854475,37.2083399 189.13862,33.2476326 184.554997,33.2476326 L168.040966,33.2476326 C165.892852,33.2438016 163.94515,32.2539194 162.5358,30.6557859 C161.123804,29.055 160.249865,26.8415422 160.249865,24.4002849 C160.249865,24.3696365 160.249865,24.3389882 160.250159,24.3086346 C160.286598,20.3031336 163.603686,17.1048035 167.597826,17.1048035 L177.725993,17.1048035 C182.309615,17.1048035 186.025177,13.3173772 186.025177,8.64556974 C186.025177,3.97376228 182.309615,0.186630648 177.725993,0.186630648 L116.338418,0.186630648 L84.5666066,0.186630648 L23.1787382,0.186630648 C18.5951154,0.186630648 14.8795539,3.97376228 14.8795539,8.64556974 C14.8795539,13.3173772 18.5951154,17.1048035 23.1787382,17.1048035 L33.3071987,17.1048035 C37.301339,17.1048035 40.6187206,20.3031336 40.6548654,24.3086346 C40.6551592,24.3389882 40.6554531,24.3696365 40.6554531,24.4002849 C40.6554531,26.8415422 39.7809268,29.055 38.3689311,30.6557859 C36.9595803,32.2539194 35.0121724,33.2438016 32.8637645,33.2476326 L16.3497338,33.2476326 C11.766111,33.2476326 8.0502557,37.2083399 8.0502557,42.094391 C8.0502557,46.980442 11.766111,50.9411493 16.3497338,50.9411493 L32.9054925,50.9411493 C37.1405978,50.9411493 40.6219531,54.3501866 40.6548654,58.5973379 C40.6551592,58.6256287 40.6554531,58.6539194 40.6554531,58.6822102 C40.6554531,61.2142338 39.7809268,63.5099116 38.3689311,65.1702259 C37.5029268,66.1857466 36.2369794,66.7701277 34.9043259,66.7701277 L8.29944868,66.7701277 C3.71582588,66.7701277 -2.93859649e-05,70.5719941 -2.93859649e-05,75.2620727 C-2.93859649e-05,79.9521513 3.71582588,83.7543124 8.29944868,83.7543124 L32.8637645,83.7543124 C37.1670452,83.7610904 40.6554531,87.5585363 40.6554531,92.2436051 C40.6554531,94.5873183 39.7809268,96.7120727 38.3689311,98.2483202 C37.3025145,99.4047053 35.8032425,100.062171 34.2325627,100.062171 L23.1787382,100.062171 C18.5951154,100.062171 14.8795539,103.943605 14.8795539,108.731523 C14.8795539,113.519735 18.5951154,117.401169 23.1787382,117.401169 L32.8946197,117.401169 C38.4018434,117.401169 41.5232206,123.379656 40.446225,128.311385 C39.2693171,133.700481 33.9486943,133.354214 29.3971022,133.353919 C24.7359004,133.353919 20.9721461,137.207652 21.1008566,141.910992 C21.2245715,146.444293 25.0473917,150.000088 29.5695978,150.000088 L84.5666066,150.000088 L116.338418,150.000088 L171.335133,150.000088 C175.857633,150.000088 179.680159,146.444293 179.804168,141.910992 C179.932585,137.207652 176.16883,133.353919 171.507922,133.353919 C166.95633,133.354214 161.635414,133.700481 160.458506,128.311385 C159.38151,123.379656 162.503181,117.401169 168.010405,117.401169 L177.725993,117.401169 C182.309615,117.401169 186.025177,113.519735 186.025177,108.731523 C186.025177,103.943605 182.309615,100.062171 177.725993,100.062171 L166.672168,100.062171 C165.101488,100.062171 163.60251,99.4047053 162.5358,98.2483202 C161.123804,96.7120727 160.249865,94.5873183 160.249865,92.2436051 C160.249865,87.5585363 163.737979,83.7610904 168.040966,83.7543124 L192.605576,83.7543124 C197.189199,83.7543124 200.90476,79.9521513 200.90476,75.2620727 C200.90476,70.5719941 197.189199,66.7701277 192.605576,66.7701277" id="Fill-1" fill="#DDE9F2" mask="url(#mask-2)"></path>
                    </g>
                    <g id="Success" transform="translate(17.000000, 0.000000)" fill-rule="nonzero">
                        <path d="M85,28.16353 C54.072054,28.16353 29,53.235584 29,84.16353 C29,115.091476 54.072054,140.16353 85,140.16353 C115.927946,140.16353 141,115.091476 141,84.16353 C140.96533,53.2499561 115.913574,28.1981997 85,28.16353 Z M85,136.16353 C56.281193,136.16353 33,112.882337 33,84.16353 C33,55.444723 56.281193,32.16353 85,32.16353 C113.718807,32.16353 137,55.444723 137,84.16353 C136.967486,112.868858 113.705328,136.131016 85,136.16353 L85,136.16353 Z" id="Shape" fill="#FCD309"></path>
                        <path d="M115.59766,58.73775 L68.27051,105.311 L54.44922,90.78463 C53.6876718,89.9842479 52.4214771,89.9527668 51.621095,90.714315 C50.8207129,91.4758632 50.7892318,92.7420579 51.55078,93.54244 L66.77441,109.54244 C67.1440626,109.930924 67.6542339,110.154697 68.19041,110.16353 L68.22361,110.16353 C68.7482966,110.16353 69.2519642,109.957319 69.62595,109.58931 L118.40232,61.58931 C118.91358,61.0886933 119.118416,60.35307 118.939468,59.6602633 C118.76052,58.9674567 118.225059,58.4230476 117.535313,58.2326434 C116.845567,58.0422392 116.10665,58.2348568 115.59763,58.73775 L115.59766,58.73775 Z" id="Path" fill="#2D4356"></path>
                        <path d="M150.72131,143.91353 L106.26178,143.91353 C135.310864,133.136077 152.467813,103.097617 146.992937,72.6012486 C141.518062,42.1048801 114.983911,19.9100872 84,19.9100872 C53.0160887,19.9100872 26.4819383,42.1048801 21.0070625,72.6012486 C15.5321867,103.097617 32.6891364,133.136077 61.73822,143.91353 L17.27869,143.91353 C16.5018976,143.812034 15.7365989,144.169504 15.3158957,144.83035 C14.8951926,145.491195 14.8951926,146.335865 15.3158957,146.99671 C15.7365989,147.657556 16.5018976,148.015026 17.27869,147.91353 L150.72131,147.91353 C151.498102,148.015026 152.263401,147.657556 152.684104,146.99671 C153.104807,146.335865 153.104807,145.491195 152.684104,144.83035 C152.263401,144.169504 151.498102,143.812034 150.72131,143.91353 L150.72131,143.91353 Z M24,83.91353 C24,50.776445 50.862915,23.91353 84,23.91353 C117.137085,23.91353 144,50.776445 144,83.91353 C144,117.050615 117.137085,143.91353 84,143.91353 C50.8784771,143.87599 24.0375401,117.035053 24,83.91353 Z M88.5,14.66353 C90.1568542,14.66353 91.5,13.3203842 91.5,11.66353 C91.5,10.0066758 90.1568542,8.66353 88.5,8.66353 C86.8431458,8.66353 85.5,10.0066758 85.5,11.66353 C85.5018957,13.3195984 86.8439316,14.6616343 88.5,14.66353 Z M88.5,10.16353 C89.3284271,10.16353 90,10.8351029 90,11.66353 C90,12.4919571 89.3284271,13.16353 88.5,13.16353 C87.6715729,13.16353 87,12.4919571 87,11.66353 C87.0008158,10.835441 87.671911,10.1643458 88.5,10.16353 L88.5,10.16353 Z M158.30471,64.91353 C157.200141,64.91353 156.30471,65.8089605 156.30471,66.91353 C156.30471,68.0180995 157.200141,68.91353 158.30471,68.91353 C159.409279,68.91353 160.30471,68.0180995 160.30471,66.91353 C160.303448,65.8094836 159.408756,64.914792 158.30471,64.91353 Z M158.30471,67.91353 C157.752425,67.91353 157.30471,67.4658147 157.30471,66.91353 C157.30471,66.3612453 157.752425,65.91353 158.30471,65.91353 C158.856995,65.91353 159.30471,66.3612453 159.30471,66.91353 C159.304159,67.4655863 158.856766,67.9129788 158.30471,67.91353 L158.30471,67.91353 Z M130,0.5802 C128.895431,0.5802 128,1.4756305 128,2.5802 C128,3.6847695 128.895431,4.5802 130,4.5802 C131.104569,4.5802 132,3.6847695 132,2.5802 C131.998738,1.47615365 131.104046,0.581461967 130,0.5802 Z M130,3.5802 C129.447715,3.5802 129,3.13248475 129,2.5802 C129,2.02791525 129.447715,1.5802 130,1.5802 C130.552285,1.5802 131,2.02791525 131,2.5802 C130.999449,3.13225626 130.552056,3.57964877 130,3.5802 Z M161.33333,12.24687 C160.228761,12.24687 159.33333,13.1423005 159.33333,14.24687 C159.33333,15.3514395 160.228761,16.24687 161.33333,16.24687 C162.437899,16.24687 163.33333,15.3514395 163.33333,14.24687 C163.332068,13.1428236 162.437376,12.248132 161.33333,12.24687 Z M161.33333,15.24687 C160.781045,15.24687 160.33333,14.7991547 160.33333,14.24687 C160.33333,13.6945853 160.781045,13.24687 161.33333,13.24687 C161.885615,13.24687 162.33333,13.6945853 162.33333,14.24687 C162.332779,14.7989263 161.885386,15.2463188 161.33333,15.24687 Z M30.30471,27.5802 C30.30471,26.4756305 29.4092795,25.5802 28.30471,25.5802 C27.2001405,25.5802 26.30471,26.4756305 26.30471,27.5802 C26.30471,28.6847695 27.2001405,29.5802 28.30471,29.5802 C29.4087564,29.578938 30.303448,28.6842464 30.30471,27.5802 L30.30471,27.5802 Z M27.30471,27.5802 C27.30471,27.0279153 27.7524253,26.5802 28.30471,26.5802 C28.8569947,26.5802 29.30471,27.0279153 29.30471,27.5802 C29.30471,28.1324847 28.8569947,28.5802 28.30471,28.5802 C27.7526537,28.5796488 27.3052612,28.1322563 27.30471,27.5802 L27.30471,27.5802 Z" id="Shape" fill="#1B2E5A"></path>
                        <polygon id="Path" fill="#3FAF5D" points="10.888 64.925 12.375 62.969 11.436 62.437 10.481 64.627 10.45 64.627 9.48 62.453 8.525 63 9.996 64.91 9.996 64.941 7.695 64.643 7.695 65.707 10.011 65.41 10.011 65.441 8.525 67.35 9.416 67.914 10.434 65.707 10.465 65.707 11.404 67.898 12.39 67.335 10.888 65.457 10.888 65.425 13.25 65.707 13.25 64.643 10.888 64.956"></polygon>
                        <polygon id="Path" fill="#3FAF5D" points="12.162 3.238 11.306 4.337 11.819 4.662 12.405 3.391 12.423 3.391 12.964 4.653 13.532 4.328 12.667 3.247 12.667 3.229 14.027 3.391 14.027 2.778 12.667 2.959 12.667 2.941 13.523 1.814 12.982 1.508 12.433 2.769 12.414 2.769 11.856 1.517 11.306 1.832 12.153 2.932 12.153 2.95 10.828 2.778 10.828 3.391 12.162 3.22"></polygon>
                        <polygon id="Path" fill="#3FAF5D" points="65.305 3.294 65.305 2.25 62.988 2.557 62.988 2.526 64.446 0.608 63.525 0.086 62.589 2.235 62.558 2.235 61.607 0.101 60.67 0.639 62.113 2.511 62.113 2.542 59.856 2.25 59.856 3.294 62.128 3.002 62.128 3.033 60.67 4.905 61.545 5.458 62.543 3.294 62.573 3.294 63.494 5.442 64.461 4.89 62.988 3.048 62.988 3.017"></polygon>
                        <polygon id="Path" fill="#3FAF5D" points="138.858 32.839 140.116 31.184 139.321 30.734 138.514 32.587 138.487 32.587 137.667 30.747 136.858 31.21 138.103 32.826 138.103 32.852 136.157 32.6 136.157 33.5 138.116 33.249 138.116 33.276 136.858 34.89 137.613 35.367 138.474 33.5 138.5 33.5 139.294 35.354 140.129 34.877 138.858 33.289 138.858 33.262 140.856 33.5 140.856 32.6 138.858 32.865"></polygon>
                        <circle id="Oval" fill="#2D4356" cx="2" cy="145.914" r="2"></circle>
                        <path d="M11,143.91353 L8,143.91353 C6.8954305,143.91353 6,144.808961 6,145.91353 C6,147.018099 6.8954305,147.91353 8,147.91353 L11,147.91353 C12.1045695,147.91353 13,147.018099 13,145.91353 C13,144.808961 12.1045695,143.91353 11,143.91353 Z M160,143.91353 L157,143.91353 C155.895431,143.91353 155,144.808961 155,145.91353 C155,147.018099 155.895431,147.91353 157,147.91353 L160,147.91353 C161.104569,147.91353 162,147.018099 162,145.91353 C162,144.808961 161.104569,143.91353 160,143.91353 Z" id="Shape" fill="#2D4356"></path>
                        <circle id="Oval" fill="#2D4356" cx="166" cy="145.914" r="2"></circle>
                        <path d="M118.15387,151.91353 L109.84613,151.91353 C108.803505,151.997072 107.999973,152.867564 107.999973,153.91353 C107.999973,154.959496 108.803505,155.829988 109.84613,155.91353 L118.15387,155.91353 C119.196495,155.829988 120.000027,154.959496 120.000027,153.91353 C120.000027,152.867564 119.196495,151.997072 118.15387,151.91353 Z M58.15387,151.91353 L49.84613,151.91353 C48.8035052,151.997072 47.9999732,152.867564 47.9999732,153.91353 C47.9999732,154.959496 48.8035052,155.829988 49.84613,155.91353 L58.15387,155.91353 C59.1964948,155.829988 60.0000268,154.959496 60.0000268,153.91353 C60.0000268,152.867564 59.1964948,151.997072 58.15387,151.91353 L58.15387,151.91353 Z M104,151.91353 L64,151.91353 C62.8954305,151.91353 62,152.808961 62,153.91353 C62,155.018099 62.8954305,155.91353 64,155.91353 L79.94,155.91353 L79.94,157.91353 L72,157.91353 C70.8954305,157.91353 70,158.808961 70,159.91353 C70,161.018099 70.8954305,161.91353 72,161.91353 L97,161.91353 C98.1045695,161.91353 99,161.018099 99,159.91353 C99,158.808961 98.1045695,157.91353 97,157.91353 L88.06,157.91353 L88.06,155.91353 L104,155.91353 C105.104569,155.91353 106,155.018099 106,153.91353 C106,152.808961 105.104569,151.91353 104,151.91353 Z" id="Shape" fill="#FCD309"></path>
                    </g>
                </g>
            </g>
        </g>
    </g>
</svg>